
{
    "httpMethod": "POST",
    "path": "/artists",
    "headers": {
        "Content-Type": "application/json"
    },
    "body": "{\"access_token\": \"BQAKyUIeomzGAubXmDJw_BSqhMoeOJYl9TlDPOksutJLrKMJ5MgbWseWMks8UD4qNCFmaMFlBD7HvWRCVHaICLb2jZ24b1NWo-5Cya6NYfXCosU0jsh72P-7kjdlnz3zIQzhDnb0d09XdBr7KDDaRP56sLN6yUAhG5EhP_eZFgwtWSmjsUpn5YiI22ERvdAP\", \"time_range\": \"short_term\"}"
}
