{
  "providers": {
    "awscloudformation": {
      "AuthRoleName": "amplify-festivalmatch-dev-211606-authRole",
      "UnauthRoleArn": "arn:aws:iam::338338577217:role/amplify-festivalmatch-dev-211606-unauthRole",
      "AuthRoleArn": "arn:aws:iam::338338577217:role/amplify-festivalmatch-dev-211606-authRole",
      "Region": "us-east-1",
      "DeploymentBucketName": "amplify-festivalmatch-dev-211606-deployment",
      "UnauthRoleName": "amplify-festivalmatch-dev-211606-unauthRole",
      "StackName": "amplify-festivalmatch-dev-211606",
      "StackId": "arn:aws:cloudformation:us-east-1:338338577217:stack/amplify-festivalmatch-dev-211606/115b5780-96d6-11ed-a4bd-0a49b7434165",
      "AmplifyAppId": "d2wldfwrrfd331"
    }
  },
  "function": {
    "lambdafunction": {
      "build": true,
      "providerPlugin": "awscloudformation",
      "service": "Lambda",
      "lastBuildTimeStamp": "2023-01-18T03:52:03.079Z",
      "lastBuildType": "PROD",
      "lastPackageTimeStamp": "2023-01-18T03:52:03.114Z",
      "distZipFilename": "lambdafunction-7a3248687539372b6e56-build.zip",
      "s3Bucket": {
        "deploymentBucketName": "amplify-festivalmatch-dev-211606-deployment",
        "s3Key": "amplify-builds/lambdafunction-7a3248687539372b6e56-build.zip"
      },
      "providerMetadata": {
        "s3TemplateURL": "https://s3.amazonaws.com/amplify-festivalmatch-dev-211606-deployment/amplify-cfn-templates/function/lambdafunction-cloudformation-template.json",
        "logicalId": "functionlambdafunction"
      },
      "lastPushTimeStamp": "2023-01-22T22:06:16.599Z",
      "output": {
        "LambdaExecutionRoleArn": "arn:aws:iam::338338577217:role/festivalmatchLambdaRole2e894948-dev",
        "Region": "us-east-1",
        "Arn": "arn:aws:lambda:us-east-1:338338577217:function:lambdafunction-dev",
        "Name": "lambdafunction-dev",
        "LambdaExecutionRole": "festivalmatchLambdaRole2e894948-dev"
      },
      "lastPushDirHash": "cpyelxySUWqvXWvEGema27DwuEc="
    },
    "mylambda": {
      "build": true,
      "providerPlugin": "awscloudformation",
      "service": "Lambda",
      "lastBuildTimeStamp": "2023-01-22T21:43:31.387Z",
      "lastBuildType": "PROD",
      "lastPackageTimeStamp": "2023-01-22T21:43:33.483Z",
      "distZipFilename": "mylambda-4a304335626d3562434a-build.zip",
      "s3Bucket": {
        "deploymentBucketName": "amplify-festivalmatch-dev-211606-deployment",
        "s3Key": "amplify-builds/mylambda-4a304335626d3562434a-build.zip"
      },
      "providerMetadata": {
        "s3TemplateURL": "https://s3.amazonaws.com/amplify-festivalmatch-dev-211606-deployment/amplify-cfn-templates/function/mylambda-cloudformation-template.json",
        "logicalId": "functionmylambda"
      },
      "lastPushTimeStamp": "2023-01-22T22:06:16.602Z",
      "output": {
        "LambdaExecutionRoleArn": "arn:aws:iam::338338577217:role/festivalmatchLambdaRole962de7ef-dev",
        "Region": "us-east-1",
        "Arn": "arn:aws:lambda:us-east-1:338338577217:function:mylambda-dev",
        "Name": "mylambda-dev",
        "LambdaExecutionRole": "festivalmatchLambdaRole962de7ef-dev"
      },
      "lastPushDirHash": "GV5ouIZEdNfhJ+1TDeqJy/CvWt8=",
      "lastDevBuildTimeStamp": "2023-01-22T16:13:21.851Z"
    }
  },
  "api": {
    "myapi": {
      "service": "API Gateway",
      "providerPlugin": "awscloudformation",
      "dependsOn": [
        {
          "category": "function",
          "resourceName": "mylambda",
          "attributes": [
            "Name",
            "Arn"
          ]
        }
      ],
      "providerMetadata": {
        "s3TemplateURL": "https://s3.amazonaws.com/amplify-festivalmatch-dev-211606-deployment/amplify-cfn-templates/api/myapi-cloudformation-template.json",
        "logicalId": "apimyapi"
      },
      "lastPushTimeStamp": "2023-01-22T22:06:16.604Z",
      "output": {
        "ApiName": "myapi",
        "RootUrl": "https://6t52ktemsh.execute-api.us-east-1.amazonaws.com/dev",
        "ApiId": "6t52ktemsh"
      },
      "lastPushDirHash": "EyNqPiPLIvYT0NiqyTs6NG9h3WM="
    }
  }
}