[
    {
        "name": "Beyond Wonderland",
        "date": "Mar 24 2023",
        "images": ["beyondwonderland1.jpg", "beyondwonderland2.jpg", "beyondwonderland3.jpg"],
        "link": "https://socal.beyondwonderland.com/",
        "color": "#A332B3",
        "lineup": [
            "A Hundred Drums",
            "AC Slater",
            "ACRAZE",
            "Alesso",
            "Apashe",
            "ATLiens",
            "BIJOU",
            "Black Tiger Sex Machine",
            "Calyx & TeeBee",
            "Champagne Drip",
            "Chomppa",
            "Chris Lorenzo",
            "Cloonee",
            "CloZee",
            "Deathpact",
            "Dombresky",
            "Downlo",
            "Dr. Fresch",
            "Ekali",
            "Elderbrook",
            "Fisher",
            "Frida K",
            "The Funk Hunters",
            "FuntCase",
            "Getter",
            "Green Velvet",
            "HoneyLuv",
            "Ivy Lab",
            "J. Worra",
            "James Hype",
            "John Summit",
            "Kaskade",
            "The Librarian",
            "Liquid Stranger",
            "Lucati",
            "MARAUDA",
            "Moore Kismet",
            "Mythm",
            "No Thanks",
            "Noizu",
            "Nostalgix",
            "PANDAmonium",
            "Porter Robinson",
            "Rossy",
            "Sean Majors",
            "sfam",
            "SIDEPIECE",
            "Smoakland",
            "Tollefson",
            "TroyBoi",
            "Truth x Lies",
            "Weird Waifu",
            "Wenzday",
            "Westend",
            "Wreckno",
            "Zeds Dead"
        ]
    },
    {
        "name": "Project Glow",
        "date": "Apr 29 2023",
        "images": ["projectglow1.jpg", "projectglow2.jpg", "projectglow3.jpg"],
        "link": "https://projectglowfest.com/lineup/",
        "color": "#A332B3",
        "lineup": [
            "Baby Weight",
            "Benny Benassi",
            "Coco & Breezy",
            "Crankdat",
            "Disco Lines",
            "Dom Dolla",
            "Green Velvet",
            "Ferry Corsten",
            "Markus Schulz",
            "Frank Walker",
            "Gorgon City",
            "Gryffin",
            "HoneyLuv",
            "Joshwa",
            "J. Worra",
            "Jai Wolf (DJ Set)",
            "JEANIE",
            "Yakz",
            "JVNA",
            "Kaleena Zanders",
            "Kill The Noise",
            "Kream",
            "Kygo",
            "LSDREAM",
            "Madeon (DJ Set)",
            "Mau P",
            "NGHTMRE",
            "NotL\u00f6",
            "Peekaboo",
            "Shiba San",
            "Timmy Trumpet",
            "Ti\u00ebsto",
            "Tom & Collins",
            "Wavedash",
            "Wax Motif",
            "Noizu",
            "Wenzday",
            "Zeds Dead"
        ]
    },
    {
        "name": "Escape Halloween",
        "date": "Oct 27 2023",
        "images": ["escapehalloween1.jpg", "escapehalloween2.jpg", "escapehalloween3.jpg"],
        "link": "https://escapehalloween.com/",
        "color": "#A332B3",
        "lineup": [
            "100 gecs",
            "Alesso",
            "Anfisa Letyago",
            "ANNA",
            "Ben Klock",
            "Ben Nicky presents Xtreme",
            "BIJOU",
            "Black Tiger Sex Machine",
            "Blossom",
            "Bob Moses (Club Set)",
            "Bones",
            "Brennen Grey",
            "Calcium",
            "Chris Stussy",
            "Cloonee",
            "D-Sturb",
            "Warface",
            "Da Tweekaz",
            "Deborah De Luca",
            "Deorro",
            "Valentino Khan",
            "Diplo",
            "DJ AniMe",
            "Dot",
            "DRAKK",
            "Eli Brown",
            "Eric Prydz",
            "Florian Picasso",
            "Flosstradamus",
            "FrostTop",
            "Getter",
            "HoneyLuv",
            "J. Worra",
            "Kayzo",
            "Kill Script",
            "Kloud",
            "Kreation",
            "Kromi",
            "Lucii",
            "Lucky Rabbit",
            "Marco Carola",
            "Marshmello",
            "Martin Garrix",
            "Meduza",
            "Miane",
            "Modestep",
            "Moore Kismet",
            "Nina Kraviz",
            "Nurko (Nightfall Set)",
            "Oliver Heldens",
            "Pauline Herr",
            "The Prototypes",
            "Radical Redemption",
            "Said The Sky",
            "SAYMYNITTI",
            "Shiverz",
            "SIDEPIECE",
            "Skellytn",
            "SOREN",
            "Sound Rush",
            "Sub Zero Project",
            "Subtronics",
            "Ti\u00ebsto",
            "Vintage Culture",
            "Wax Motif",
            "Wooli",
            "Zingara"
        ]
    },
    {
        "name": "EDC Las Vegas",
        "date": "May 19 2023",
        "color": "#A332B3",
        "images": ["edclv1.jpg", "edclv2.jpg", "edclv3.jpg"],
        "link": "https://lasvegas.electricdaisycarnival.com/",
        "lineup": [
            "12th Planet",
            "1991",
            "5G\u00d8DZ",
            "A-Trak",
            "Craze",
            "A-Trak (House Set)",
            "A.M.C",
            "AC Slater",
            "Chris Lorenzo",
            "ACIDTWIINS",
            "ACRAZE",
            "Adam Auburn",
            "Adam Beyer",
            "Adrenalize",
            "Air2Earth",
            "Alan Walker",
            "Alesso",
            "Alexandar Smash",
            "Alix Perez",
            "Alok",
            "Aly & Fila",
            "Alyx Ander",
            "ANATTA",
            "Anderson M",
            "Andrew Rayel",
            "Anfisa Letyago",
            "Ann Clue",
            "The Archer",
            "Armin van Buuren",
            "ARMNHMR",
            "Assembly",
            "ATB",
            "atDusk",
            "ATLiens",
            "Audien",
            "Audiofreq",
            "Audiofreq, Code Black & Toneshifterz present: 3 Blokes",
            "Autograf",
            "Avision",
            "Baby Weight",
            "Baggi",
            "Bakke",
            "Bear Grillz",
            "Kompany",
            "Ben B\u00f6hmer (Live)",
            "Ben Nicky presents Xtreme",
            "Bexxie",
            "BIJOU",
            "Habstrakt",
            "Bingewatch",
            "Biscits",
            "Black V Neck",
            "Blake Webber",
            "Blastoyz",
            "Blossom",
            "Blunts & Blondes",
            "BOMBAYS",
            "Bones",
            "Borgore",
            "Boris Brejcha",
            "Born Dirty (Techno Set)",
            "Boston Bun",
            "Brainchild",
            "Brandon Elliot",
            "Bunny (Rabbit In The Moon)",
            "Burko",
            "Candl",
            "Capozzi",
            "Carl Craig",
            "Carlo Key",
            "Cat Dealers",
            "Cats & Boots B2B",
            "Chapter & Verse",
            "Charlotte de Witte",
            "Chocolate Sushi",
            "Chris Jay",
            "Chris Lake",
            "CID",
            "Cloonee",
            "Cloverdale",
            "Coco & Breezy",
            "Colored Craig",
            "Corey Sizemore",
            "Richie Panic",
            "Cosmic Gate",
            "Craig Connelly",
            "Crime Family",
            "D!CED",
            "D-Sturb",
            "Da Tweekaz",
            "Damon Sharpe",
            "Darksiderz",
            "Darren Styles",
            "David Guetta & MORTEN present: Future Rave",
            "Deadly Guns",
            "Deborah De Luca",
            "Deeper Purpose",
            "Definitive",
            "Replicant",
            "Delta Heavy",
            "Koven",
            "Muzz",
            "Demigod",
            "Dennis Cruz",
            "Deorro",
            "Derrick Carter",
            "Deyo",
            "Diamond Dallas Tex",
            "Diesel",
            "Dillon Francis",
            "DJ AniMe",
            "DJ Feelgood",
            "DJ Heather",
            "DJ Holographic",
            "DJ Isaac",
            "DJ Snake",
            "Doctor P (DNB Set)",
            "Doctor P B2B FuntCase (Classics Set)",
            "Dom Dolla",
            "Dot",
            "Dr Phunk",
            "Dr. Apollo",
            "Dr. Defiant",
            "Duck Sauce",
            "DVRKO",
            "Echod",
            "El Monk",
            "Eprom",
            "Eric Mark",
            "Eric Prydz",
            "Evan Giia",
            "Evol Intent",
            "Excision (Detox Set)",
            "Fallen",
            "Richter",
            "Fury",
            "Nightstalker",
            "MC Dino",
            "MC XYZ",
            "Fallen",
            "Richter",
            "Fantom Freq",
            "Felix Da Housecat",
            "Ferry Corsten",
            "Fester",
            "Fetish",
            "Fireworks",
            "Fisher",
            "FJAAK (DJ Set)",
            "FlashGang",
            "Francis Mercier",
            "Friction",
            "Kanine",
            "FrostTop",
            "RemK",
            "FuntCase (DNB Set)",
            "Fury",
            "Nightstalker",
            "MC Dino",
            "G Jones",
            "Gabriel & Dresden",
            "Ganja White Night",
            "Gem & Tauri",
            "Gene Farris",
            "Getter",
            "Space Laces",
            "Gibson Parker",
            "Gigantic NGHTMRE",
            "Giuseppe Ottaviani Live 3.0",
            "Golf Clap",
            "Good Times Ahead",
            "Grimes (DJ Set)",
            "HANA",
            "Harmson",
            "Harry Romero",
            "Headhunterz",
            "Heidi Lawden",
            "helloworld",
            "Highlnd",
            "Honey Dijon",
            "HoneyLuv",
            "Hpnotic",
            "Lucky Rabbit",
            "Hugel",
            "Hulk Gang (4B + Valentino Khan)",
            "Hush",
            "Hybrid Minds",
            "I Hate Models",
            "Ilan Bluestone",
            "Ilario Alicante",
            "Illenium",
            "Imanbek",
            "IMANU",
            "Indira Paganotto",
            "Jai Wolf",
            "James Hype",
            "Jason Ross",
            "Jauz: Off the Deep End",
            "Jawns",
            "Jayda G",
            "Jessica Audiffred",
            "Joel Corry",
            "John O'Callaghan",
            "John Summit",
            "Jorza",
            "Joseph Capriati",
            "Joshwa",
            "JSTJR",
            "Julienne By",
            "Junkie Kid",
            "Geo",
            "Justin Hawkes",
            "k?d",
            "Kai Wachi",
            "Kaleena Zanders",
            "Kallaghan",
            "KAMI",
            "Kasablanca",
            "Kaskade & deadmau5 present Kx5",
            "Kaskade Redux",
            "Kayzo",
            "Keekz",
            "Kendoll",
            "Khromata",
            "Kittrix",
            "Knock2",
            "Knowmans",
            "Korsky",
            "Koven",
            "Kream",
            "KsoFresKo",
            "Kwon",
            "Lab Group",
            "Lady Faith",
            "Lady Sinclair",
            "LayD",
            "Lee Foss",
            "Level Up",
            "Lil Texas",
            "Link",
            "Liquid Stranger",
            "LLLLNNNN",
            "LNY TNZ",
            "longstoryshort",
            "LP Giobbi",
            "Born Dirty",
            "LP Giobbi",
            "Lucati",
            "LuckyRoll",
            "LUPA",
            "Luttrell",
            "Maanic",
            "Macky Gee",
            "Mad Dog",
            "Madeon (DJ Set)",
            "Majestic",
            "Manolo",
            "MARAUDA",
            "Marc V",
            "Mark Farina",
            "Mark Lizaola",
            "MaRLo",
            "Marques Wyatt",
            "Mars",
            "Martin Ikin",
            "Mary Droppinz",
            "Masha Mar",
            "Masteria",
            "Mat Zo",
            "Matroda",
            "Bleu Clair",
            "Matroda",
            "Matt Fax",
            "Matt Steffanina",
            "Matthias",
            "Max Low",
            "Meduza",
            "Memba (DJ Set)",
            "Mija",
            "MitiS",
            "MitiS",
            "Crystal Skies",
            "Moni",
            "Moore Kismet",
            "Morelia",
            "Morgin Madison",
            "Morpei",
            "Abana",
            "Mr. Brooks",
            "Ms. Mada",
            "Muzz",
            "MXM",
            "Mystery Jack",
            "Neon Deluz",
            "NES",
            "Nick Garcia",
            "Niles Shepard",
            "Nitepunk",
            "NITTI",
            "Wuki",
            "No Mana",
            "Eddie",
            "No Thanks",
            "Nora En Pure",
            "Nostalgix",
            "Omar Santana",
            "On Deck",
            "Skemaddox",
            "One True God",
            "ONYVAA",
            "Partiboi69",
            "Party Dads",
            "Paul van Dyk",
            "Pauline Herr",
            "Piques",
            "La\u0304sh",
            "Porter Robinson (DJ Set)",
            "Pretty Pink",
            "Purple",
            "Qlank",
            "Qrion",
            "RachEP",
            "Rad Cat",
            "Radical Redemption",
            "Reaper",
            "RemK",
            "Renato S",
            "Renegade System",
            "Rezz",
            "Riot Ten",
            "Rob Gee",
            "Roswell",
            "Ruben de Ronde",
            "Ruff Hauser",
            "Roy Wilkins",
            "Rusko",
            "S-Doobie",
            "Sam Divine",
            "Samwise",
            "San Holo",
            "SCHALA",
            "Seven Lions",
            "Shiba San",
            "SIDEPIECE",
            "Sinopoli",
            "Danyelino",
            "Skonka",
            "SKYE",
            "Slippy",
            "So Tuff So Cute",
            "Softest Hard",
            "Solh",
            "Soothslayer",
            "SOREN",
            "Soul Purpose",
            "Sound Rush",
            "Special Guest",
            "Spency Be",
            "Stanley Kubrix",
            "Star Seed",
            "Sub Focus & Wilkinson present: Portals",
            "Sub Zero Project",
            "Subtronics",
            "Subtronics",
            "Boogie T",
            "Sultan + Shepard",
            "Svdden Death",
            "SVNF8",
            "Swage",
            "Synymata",
            "Tale Of Us",
            "Talon",
            "Taylor Jaymin",
            "Taylor Kade",
            "Taylor Torrence",
            "Tchami",
            "TELYKast",
            "Tempo Giusto",
            "Testpilot",
            "Thee-O",
            "Things You Say",
            "Thunderpony",
            "Timmy Trumpet",
            "Tinlicker",
            "TINYKVT",
            "Ti\u00ebsto",
            "TNT",
            "Torren Foot",
            "Tritonal",
            "Trouble",
            "Truth x Lies",
            "TSHA",
            "Tsu Nami",
            "Tweekacore",
            "UNiiQU3",
            "Vini Vici",
            "Vintage Culture",
            "James Hype",
            "Vintage Culture",
            "Virtual Riot",
            "Volac",
            "Wade",
            "Wave Point",
            "Wax Motif & Friends",
            "Wenzday",
            "Dustycloud",
            "Special Guest",
            "Wenzday",
            "Nostalgix",
            "Wenzday",
            "Westend",
            "Lucati",
            "Westend",
            "Black V Neck",
            "Westend",
            "WHIPPED CREAM",
            "Wildstylez",
            "Wuki & Friends",
            "XiJaro & Pitch",
            "Yellow Claw",
            "yetep",
            "Yokai",
            "Yolanda Be Cool",
            "Zedd",
            "Zeds Dead",
            "Zhu",
            "Zomboy",
            "\u20acURO TRA$H"
        ]
    },
    {
        "name": "Skyline",
        "date": "Feb 25 2023",
        "color": "#A332B3",
        "images": ["skyline1.jpg", "skyline2.jpg", "skyline3.jpg"],
        "link": "https://www.insomniac.com/events/skyline-la-2023-02-25-los-angeles-ca/",
        "lineup": [
            "ANOTR",
            "Ben Hemsley",
            "Charlotte de Witte",
            "Diplo",
            "Dom Dolla",
            "Eli & Fur",
            "Ellen Allien",
            "Sara Landry",
            "J. Worra",
            "Miane",
            "Joseph Capriati",
            "Joshwa",
            "Layla Benitez",
            "Lucati",
            "Masha Mar",
            "Meduza",
            "Michael Bibi",
            "Michelle Leshem",
            "Monsieur Frazier",
            "Peggy Gou",
            "Rechulski",
            "Shiba San",
            "Solardo",
            "Shmitty",
            "Skream",
            "Dennis Ferrer",
            "SOHMI",
            "Stella Bossi"
        ]
    },
    {
        "name": "III Points",
        "date": "Oct 20 2023",
        "color": "#A332B3",
        "images": ["iiipoints1.jpg", "iiipoints2.jpg", "iiipoints3.jpg"],
        "link": "https://www.iiipoints.com/",
        "lineup": [
            "2cee",
            "A. G. Cook",
            "Ackdaddy",
            "Adam At The Door",
            "Amtrac (Live)",
            "Andres Line",
            "Andy Stott",
            "Angelfire",
            "ANNA",
            "AR KEDABAR",
            "ARTBAT",
            "Artime",
            "Ashley Venom",
            "Bakke",
            "Ben Sterling",
            "Bitter Babe",
            "Black Coffee",
            "Bob Moses (Live)",
            "Bort",
            "BRESH",
            "Brother Dan",
            "bunni (Live)",
            "Busta Rhymes",
            "Butterfly Snapple",
            "Carlita",
            "Celosia",
            "CHAOS!",
            "Chlo\u00e9 Caillet",
            "Chris Lake",
            "Coffintexts",
            "Daisy Cutter",
            "Daizy",
            "Danny Daze",
            "Danyelino",
            "Dennis Cruz",
            "Deroboter",
            "Lenny Foret",
            "Diego Andr\u00e9s",
            "Differ",
            "DJ Harvey",
            "DJ Ray",
            "Do Not Air",
            "Donzii",
            "Eli Carter",
            "Elias Garcia",
            "Emma",
            "Ennio Skoto",
            "Eric Duncan",
            "Erika de Casier",
            "eveava",
            "Feph (Live)",
            "Fisher",
            "The Floridians",
            "Flume",
            "Folktale San Pedro",
            "Freddie Gibbs",
            "Frogs Show Mercy",
            "Generous B",
            "Ghostflower",
            "The Hails",
            "Haute Tension",
            "Homeshake",
            "House of Pris",
            "III 0 5 (Trick Daddy, Trina & Uncle Luke)",
            "ilikebloo",
            "Inbal",
            "Inez Barlatier",
            "INVT",
            "Jacques Greene",
            "Jacuzzi Boys",
            "Jaialai",
            "James Blake",
            "Jan Anthony",
            "Milo Ziro",
            "Jan Anthony",
            "Milo Ziro",
            "Jason Rault",
            "JBZ",
            "Jimi Jules",
            "John Summit",
            "Joji",
            "Jonny From Space",
            "Joy Odyssey",
            "Jubilee",
            "Julio Victoria (Live Band)",
            "Kenny Beats",
            "Kittin & The Hacker",
            "La Femme",
            "La Goony Chonga",
            "Lando & The Infinite Sadness",
            "Las Nubes",
            "LCD Soundsystem",
            "Le Poodle",
            "Loco Dice",
            "Luciano",
            "Maccabi",
            "Madeon (Live)",
            "Maher Daniel",
            "Manolo",
            "Manu Manzo",
            "The Mar\u00edas",
            "Matador",
            "Max Stern",
            "Michelle Leshem",
            "Miguelle & Tons",
            "Mikey Ramirez",
            "Miluhska (Live)",
            "Mindchatter (Live)",
            "MJ Nebreda",
            "Mochakk",
            "Mold!",
            "Monoky",
            "Moscoman",
            "Mr. Tron",
            "Ms. Mada",
            "Mutant Pete",
            "Mystic Bill",
            "Nadhi",
            "Nala",
            "Nicholas G. Padilla",
            "Nick Le\u00f3n",
            "Nii Tei",
            "Dude Skywalker",
            "Nina Kraviz",
            "Ni\u00f1a",
            "Optimo",
            "Orbital",
            "Otto Von Schirach",
            "Overmono (Live)",
            "Pablo Arrangoiz",
            "Palomino Blond",
            "PAWSA",
            "Phoenix",
            "Phoenix James",
            "Pink Siifu",
            "Pirate Stereo",
            "Polo & Pan",
            "Porter Robinson",
            "Pressure Point",
            "Radar",
            "Rawayana",
            "Rebolledo",
            "Red Axes",
            "Richie Hell (Live)",
            "RINAS",
            "ROC CHAMBERLIN",
            "Romulo Del Castillo",
            "Rosal\u00eda",
            "Rossi.",
            "Roujeee Tunes",
            "Sama' Abdulhadi",
            "Seafoam Walls",
            "SEL.6",
            "shinobi",
            "Shygirl",
            "Sister System",
            "Sita Abell\u00e1n",
            "Sohn Jamal",
            "Souls Departed",
            "specs",
            "Near Dark",
            "SUZ",
            "Sydfalls",
            "Tama Gucci",
            "Tara Long",
            "Terence Tabeau",
            "Thunderpony",
            "Tidur (Live)",
            "Tom Gorl",
            "Troy Kurtz",
            "True Vine",
            "Tycho",
            "Ultrathem",
            "Whitesquare",
            "Will Buck",
            "Winter Wrong",
            "Yellow Days",
            "Yung Algebra"
        ]
    },
    {
        "name": "Okeechobee",
        "date": "Mar 2 2023",
        "color": "#A332B3",
        "images": ["okeechobee1.jpg", "okeechobee2.jpg", "okeechobee3.jpg"],
        "link": "https://www.okeechobeefest.com/",
        "lineup": [
            "The 502s",
            "Anna Morgan",
            "Artikal Sound System",
            "Austin Millz",
            "Baby Keem",
            "Benda",
            "Big Boi",
            "Biig Piig",
            "Blunts & Blondes",
            "Boogie T",
            "Dirt Monkey",
            "Boogie T.rio",
            "Break Science",
            "Carlita",
            "Celo",
            "Channel Tres",
            "Chef Boyarbeatz",
            "Chris Lorenzo",
            "Coffintexts",
            "Craze (Drum & Bass Set)",
            "Curra",
            "Cut & Sew",
            "Daily Bread",
            "Daizy",
            "Darius",
            "Davy Wreck",
            "DEKA",
            "Dirty Heads",
            "Earth, Wind & Fire",
            "Emotional Oranges",
            "episcool",
            "Esseks",
            "Evan Giia",
            "Excision",
            "Flava D",
            "flipturn",
            "Flozone",
            "Fran\u00e7ois X",
            "Free Nationals",
            "Galo",
            "Gaspar Muniz",
            "Gilligan Moss",
            "Golden Features",
            "Goose",
            "GRiZ",
            "Guavatron",
            "Hint Of Lavender",
            "Hippo Campus",
            "Icekream",
            "IMANU",
            "Indigo De Souza",
            "Inner Wave",
            "INVT",
            "It Hz (Chee x Jon Casey)",
            "IVVY",
            "Ivy Lab",
            "J. Worra",
            "Jonny From Space",
            "Jordana",
            "The Josh Craig",
            "JPEGMAFIA",
            "The Jungle Giants",
            "Justin Martin (Drum & Bass Set)",
            "Kahn",
            "Kaivon",
            "Lava La Rue",
            "LIGHTCODE by LSDREAM",
            "Lil Yachty",
            "Local Natives",
            "LYNY",
            "Mall Grab",
            "Mass Prod",
            "Memba",
            "Mersiv",
            "Mild Minds",
            "mink",
            "Shahar",
            "Mr. Carmack",
            "Ms. Mada",
            "New Thousand",
            "Nia Archives",
            "Nick Le\u00f3n",
            "Night Tales",
            "Nikki Nair",
            "OAKK",
            "ODESZA",
            "Peekaboo",
            "Phantoms",
            "Player Dave",
            "Princess Nokia",
            "Prospa",
            "RAfeeki",
            "Rechulski",
            "RINAS",
            "Rohna",
            "Salom\u00e9 le Chat",
            "Sama' Abdulhadi",
            "SHERELLE",
            "Sierra Lane",
            "Sinopoli",
            "Sister System",
            "Slugg",
            "SNBRN",
            "Soukii",
            "Soul Clap",
            "Steller",
            "SUAT",
            "Sullivan King",
            "SunSquabi",
            "Supertask",
            "Sven V\u00e4th",
            "Tiedye Ky",
            "Tinlicker (Live)",
            "Tkay Maidza",
            "Township Rebellion",
            "True Vine",
            "DJ Flashdrive",
            "Truth",
            "Turnstile",
            "WHOM?",
            "Wilkinson",
            "Wolfram",
            "Wreckno",
            "Yheti",
            "Zen Selekta",
            "Zingara"
        ]
    },
    {
        "name": "Forbidden Kingdom",
        "date": "Jun 9 2023",
        "color": "#A332B3",
        "images": ["forbiddenkingdom1.jpg", "forbiddenkingdom2.jpg", "forbiddenkingdom3.jpg"],
        "link": "https://www.forbiddenkingdomfestival.com/",
        "lineup": [
            "12th Planet",
            "1991",
            "2AR",
            "2pull",
            "A.M.C",
            "AKVMA",
            "Al Ross",
            "Alessa",
            "ARTIX",
            "Point.Blank",
            "Audigy",
            "AVELLO",
            "Aweminus",
            "Neonix",
            "Bagha",
            "BAINBRIDGE",
            "Bandlez",
            "Barely Alive",
            "Bear Grillz",
            "Beejuice",
            "Deathnote",
            "Benda",
            "BLOODCREST",
            "Bonkers",
            "Buku",
            "G-Rex",
            "Canabliss",
            "Carnivore",
            "Champagne Drip",
            "Chimera",
            "Sakai",
            "Chomppa",
            "Corrvpt Criminal",
            "Craze",
            "Cyber G",
            "Danny Time",
            "Dark Cities",
            "Deathpact",
            "Decimate",
            "Delta Heavy",
            "Diesel",
            "Dion Timmer",
            "Dirt Monkey",
            "SubDocta",
            "Dirtyphonics",
            "Downlink",
            "Dream Takers",
            "Dug",
            "Eliminate",
            "Envy",
            "Eptic",
            "Excision",
            "Fontan",
            "Daunid",
            "Friction",
            "FuntCase",
            "Fury",
            "MC Dino",
            "G Jones",
            "Eprom",
            "G-Space",
            "Getter",
            "Space Laces",
            "Goon",
            "GRiZ",
            "Hekler",
            "Herobust",
            "Doctor P",
            "Hi I'm Ghost",
            "HOL!",
            "Jandi",
            "JEANIE",
            "Jessica Audiffred",
            "Rated R",
            "Justin Hawkes",
            "Kai Wachi",
            "Kanine",
            "Kayzo",
            "LAYZ",
            "Leotrix",
            "Lev3l",
            "Level Up",
            "LSDREAM",
            "MARAUDA",
            "Midnight Tyrannosaurus",
            "Minnesota",
            "Modestep",
            "Moovy",
            "Morse X Code",
            "Muerte",
            "Muzz",
            "Nick Steffen",
            "Oddprophet",
            "OG Nixin",
            "Oolacile",
            "Rezz",
            "Seven Lions",
            "Sharlitz Web",
            "Sippy",
            "Smoakland",
            "SoDown",
            "SoSmoov",
            "Space Wizard",
            "smith.",
            "Steller",
            "Stoned Level",
            "SubDocta (D&B Set)",
            "Subtronics",
            "Sullivan King",
            "Riot Ten",
            "Svdden Death: Into The Inferno",
            "Terminal Velocity",
            "Utilize",
            "Vainz",
            "Vampa",
            "Vaxle",
            "Versa",
            "Virtual Riot",
            "Barely Alive",
            "PhaseOne",
            "Virtual Riot",
            "Volt",
            "Wilco",
            "Aelius",
            "Wooli",
            "Yakz",
            "Jiqui",
            "YDG",
            "ZEKE BEATS",
            "Zingara",
            "Z\u00cdA"
        ]
    },
    {
        "name": "Wasteland",
        "date": "Feb 24 2023",
        "color": "#A332B3",
        "images": ["wasteland1.jpg", "wasteland2.jpg", "wasteland3.jpg"],
        "link": "https://wasteland.bassconmassive.com/",
        "lineup": [
            "Adaro",
            "Adrenalize",
            "Audiofreq",
            "Bel Air Witch",
            "Ben Nicky presents Xtreme",
            "Coone",
            "Da Tweekaz",
            "Dead X",
            "Deadly Guns",
            "Death Code",
            "Dionysus",
            "DJ AniMe",
            "DJ The Prophet",
            "Gammer",
            "GRAVEDGR (HD)",
            "Hartshorn",
            "Junkie Kid",
            "KAMI",
            "Lady Faith",
            "Levenkhan",
            "Link",
            "LLLLNNNN",
            "Lucky Rabbit",
            "Keiji",
            "Mrotek",
            "NTXC",
            "Rob Gee",
            "Talon",
            "Kreation",
            "TNT",
            "TYEGUYS",
            "Water Spirit"
        ]
    }
]